eep.vcd
$version Generated by VerilatedVcd $end
$timescale 1ps $end
 $scope module TOP $end
  $var wire 1 + clk $end
  $var wire 16 , pc [15:0] $end
  $var wire 1 - wen1 $end
  $var wire 3 . ad1 [2:0] $end
  $var wire 3 / ad2 [2:0] $end
  $var wire 3 0 ad3 [2:0] $end
  $var wire 16 1 din1 [15:0] $end
  $var wire 16 2 dout2 [15:0] $end
  $var wire 16 3 dout3 [15:0] $end
  $scope module eep $end
   $var wire 32 6 REG_DEPTH [31:0] $end
   $var wire 32 7 REG_WIDTH [31:0] $end
   $var wire 32 7 INSTR_WIDTH [31:0] $end
   $var wire 32 8 REG_ADDR_WIDTH [31:0] $end
   $var wire 1 + clk $end
   $var wire 16 , pc [15:0] $end
   $var wire 1 - wen1 $end
   $var wire 3 . ad1 [2:0] $end
   $var wire 3 / ad2 [2:0] $end
   $var wire 3 0 ad3 [2:0] $end
   $var wire 16 1 din1 [15:0] $end
   $var wire 16 2 dout2 [15:0] $end
   $var wire 16 3 dout3 [15:0] $end
   $var wire 1 9 dram_we $end
   $var wire 16 : dram_rd_ad [15:0] $end
   $var wire 16 ; dram_wt_ad [15:0] $end
   $var wire 16 < dram_in [15:0] $end
   $var wire 16 4 dram_out [15:0] $end
   $var wire 1 = code_we $end
   $var wire 16 5 n_instr [15:0] $end
   $scope module code $end
    $var wire 32 7 ADDR_WIDTH [31:0] $end
    $var wire 32 7 DATA_WIDTH [31:0] $end
    $var wire 8 > FILE [7:0] $end
    $var wire 32 ? DEPTH [31:0] $end
    $var wire 1 + clk $end
    $var wire 1 = we $end
    $var wire 16 , addr_read [15:0] $end
    $var wire 16 5 data_out [15:0] $end
   $upscope $end
   $scope module data $end
    $var wire 32 7 ADDR_WIDTH [31:0] $end
    $var wire 32 7 DATA_WIDTH [31:0] $end
    $var wire 8 > FILE [7:0] $end
    $var wire 32 ? DEPTH [31:0] $end
    $var wire 1 + clk $end
    $var wire 1 9 we $end
    $var wire 16 : addr_write [15:0] $end
    $var wire 16 ; addr_read [15:0] $end
    $var wire 16 < data_in [15:0] $end
    $var wire 16 4 data_out [15:0] $end
   $upscope $end
   $scope module regfile $end
    $var wire 32 8 ADDR_WIDTH [31:0] $end
    $var wire 32 7 DATA_WIDTH [31:0] $end
    $var wire 1 + clk $end
    $var wire 1 - wen1 $end
    $var wire 3 . ad1 [2:0] $end
    $var wire 3 / ad2 [2:0] $end
    $var wire 3 0 ad3 [2:0] $end
    $var wire 16 1 din1 [15:0] $end
    $var wire 16 2 dout2 [15:0] $end
    $var wire 16 3 dout3 [15:0] $end
    $var wire 16 # registers[0] [15:0] $end
    $var wire 16 $ registers[1] [15:0] $end
    $var wire 16 % registers[2] [15:0] $end
    $var wire 16 & registers[3] [15:0] $end
    $var wire 16 ' registers[4] [15:0] $end
    $var wire 16 ( registers[5] [15:0] $end
    $var wire 16 ) registers[6] [15:0] $end
    $var wire 16 * registers[7] [15:0] $end
   $upscope $end
  $upscope $end
 $upscope $end
$enddefinitions $end


#0
b0000000000000000 #
b0000000000000000 $
b0000000000000000 %
b0000000000000000 &
b0000000000000000 '
b0000000000000000 (
b0000000000000000 )
b0000000000000000 *
1+
b0000000000000000 ,
1-
b001 .
b001 /
b001 0
b0000000000000000 1
b0000000000000000 2
b0000000000000000 3
b0000000000000000 4
b0000000000000000 5
b00000000000000000000000000001000 6
b00000000000000000000000000010000 7
b00000000000000000000000000000011 8
09
b0000000000000000 :
b0000000000000000 ;
b0000000000000000 <
0=
b00000000 >
b00000000000000001111111111111111 ?
#1
0+
#2
1+
b0000000000000001 1
#3
b0000000000000001 $
0+
b0000000000000001 2
b0000000000000001 3
#4
1+
b0000000000000010 1
#5
b0000000000000010 $
0+
b0000000000000010 2
b0000000000000010 3
#6
1+
b0000000000000011 1
#7
b0000000000000011 $
0+
b0000000000000011 2
b0000000000000011 3
#8
1+
b0000000000000100 1
#9
b0000000000000100 $
0+
b0000000000000100 2
b0000000000000100 3
#10
1+
b0000000000000101 1
#11
b0000000000000101 $
0+
b0000000000000101 2
b0000000000000101 3
#12
1+
b0000000000000110 1
#13
b0000000000000110 $
0+
b0000000000000110 2
b0000000000000110 3
#14
1+
b0000000000000111 1
#15
b0000000000000111 $
0+
b0000000000000111 2
b0000000000000111 3
#16
1+
b0000000000001000 1
#17
b0000000000001000 $
0+
b0000000000001000 2
b0000000000001000 3
#18
1+
b0000000000001001 1
#19
b0000000000001001 $
0+
b0000000000001001 2
b0000000000001001 3
#20
1+
b0000000000001010 1
#21
b0000000000001010 $
0+
b0000000000001010 2
b0000000000001010 3
#22
1+
b0000000000001011 1
#23
b0000000000001011 $
0+
b0000000000001011 2
b0000000000001011 3
#24
1+
b0000000000001100 1
#25
b0000000000001100 $
0+
b0000000000001100 2
b0000000000001100 3
#26
1+
b0000000000001101 1
#27
b0000000000001101 $
0+
b0000000000001101 2
b0000000000001101 3
#28
1+
b0000000000001110 1
#29
b0000000000001110 $
0+
b0000000000001110 2
b0000000000001110 3
#30
1+
b0000000000001111 1
#31
b0000000000001111 $
0+
b0000000000001111 2
b0000000000001111 3
#32
1+
b0000000000010000 1
#33
b0000000000010000 $
0+
b0000000000010000 2
b0000000000010000 3
#34
1+
b0000000000010001 1
#35
b0000000000010001 $
0+
b0000000000010001 2
b0000000000010001 3
#36
1+
b0000000000010010 1
#37
b0000000000010010 $
0+
b0000000000010010 2
b0000000000010010 3
#38
1+
b0000000000010011 1
#39
b0000000000010011 $
0+
b0000000000010011 2
b0000000000010011 3
#40
1+
b0000000000010100 1
#41
b0000000000010100 $
0+
b0000000000010100 2
b0000000000010100 3
#42
1+
b0000000000010101 1
#43
b0000000000010101 $
0+
b0000000000010101 2
b0000000000010101 3
#44
1+
b0000000000010110 1
#45
b0000000000010110 $
0+
b0000000000010110 2
b0000000000010110 3
#46
1+
b0000000000010111 1
#47
b0000000000010111 $
0+
b0000000000010111 2
b0000000000010111 3
#48
1+
b0000000000011000 1
#49
b0000000000011000 $
0+
b0000000000011000 2
b0000000000011000 3
#50
1+
b0000000000011001 1
#51
b0000000000011001 $
0+
b0000000000011001 2
b0000000000011001 3
#52
1+
b0000000000011010 1
#53
b0000000000011010 $
0+
b0000000000011010 2
b0000000000011010 3
#54
1+
b0000000000011011 1
#55
b0000000000011011 $
0+
b0000000000011011 2
b0000000000011011 3
#56
1+
b0000000000011100 1
#57
b0000000000011100 $
0+
b0000000000011100 2
b0000000000011100 3
#58
1+
b0000000000011101 1
#59
b0000000000011101 $
0+
b0000000000011101 2
b0000000000011101 3
#60
1+
b0000000000011110 1
#61
b0000000000011110 $
0+
b0000000000011110 2
b0000000000011110 3
#62
1+
b0000000000011111 1
#63
b0000000000011111 $
0+
b0000000000011111 2
b0000000000011111 3
#64
1+
b0000000000100000 1
#65
b0000000000100000 $
0+
b0000000000100000 2
b0000000000100000 3
#66
1+
b0000000000100001 1
#67
b0000000000100001 $
0+
b0000000000100001 2
b0000000000100001 3
#68
1+
b0000000000100010 1
#69
b0000000000100010 $
0+
b0000000000100010 2
b0000000000100010 3
#70
1+
b0000000000100011 1
#71
b0000000000100011 $
0+
b0000000000100011 2
b0000000000100011 3
#72
1+
b0000000000100100 1
#73
b0000000000100100 $
0+
b0000000000100100 2
b0000000000100100 3
#74
1+
b0000000000100101 1
#75
b0000000000100101 $
0+
b0000000000100101 2
b0000000000100101 3
#76
1+
b0000000000100110 1
#77
b0000000000100110 $
0+
b0000000000100110 2
b0000000000100110 3
#78
1+
b0000000000100111 1
#79
b0000000000100111 $
0+
b0000000000100111 2
b0000000000100111 3
#80
1+
b0000000000101000 1
#81
b0000000000101000 $
0+
b0000000000101000 2
b0000000000101000 3
#82
1+
b0000000000101001 1
#83
b0000000000101001 $
0+
b0000000000101001 2
b0000000000101001 3
#84
1+
b0000000000101010 1
#85
b0000000000101010 $
0+
b0000000000101010 2
b0000000000101010 3
#86
1+
b0000000000101011 1
#87
b0000000000101011 $
0+
b0000000000101011 2
b0000000000101011 3
#88
1+
b0000000000101100 1
#89
b0000000000101100 $
0+
b0000000000101100 2
b0000000000101100 3
#90
1+
b0000000000101101 1
#91
b0000000000101101 $
0+
b0000000000101101 2
b0000000000101101 3
#92
1+
b0000000000101110 1
#93
b0000000000101110 $
0+
b0000000000101110 2
b0000000000101110 3
#94
1+
b0000000000101111 1
#95
b0000000000101111 $
0+
b0000000000101111 2
b0000000000101111 3
#96
1+
b0000000000110000 1
#97
b0000000000110000 $
0+
b0000000000110000 2
b0000000000110000 3
#98
1+
b0000000000110001 1
#99
b0000000000110001 $
0+
b0000000000110001 2
b0000000000110001 3
#100
1+
b0000000000110010 1
#101
b0000000000110010 $
0+
b0000000000110010 2
b0000000000110010 3
#102
1+
b0000000000110011 1
#103
b0000000000110011 $
0+
b0000000000110011 2
b0000000000110011 3
#104
1+
b0000000000110100 1
#105
b0000000000110100 $
0+
b0000000000110100 2
b0000000000110100 3
#106
1+
b0000000000110101 1
#107
b0000000000110101 $
0+
b0000000000110101 2
b0000000000110101 3
#108
1+
b0000000000110110 1
#109
b0000000000110110 $
0+
b0000000000110110 2
b0000000000110110 3
#110
1+
b0000000000110111 1
#111
b0000000000110111 $
0+
b0000000000110111 2
b0000000000110111 3
#112
1+
b0000000000111000 1
#113
b0000000000111000 $
0+
b0000000000111000 2
b0000000000111000 3
#114
1+
b0000000000111001 1
#115
b0000000000111001 $
0+
b0000000000111001 2
b0000000000111001 3
#116
1+
b0000000000111010 1
#117
b0000000000111010 $
0+
b0000000000111010 2
b0000000000111010 3
#118
1+
b0000000000111011 1
#119
b0000000000111011 $
0+
b0000000000111011 2
b0000000000111011 3
#120
1+
b0000000000111100 1
#121
b0000000000111100 $
0+
b0000000000111100 2
b0000000000111100 3
#122
1+
b0000000000111101 1
#123
b0000000000111101 $
0+
b0000000000111101 2
b0000000000111101 3
#124
1+
b0000000000111110 1
#125
b0000000000111110 $
0+
b0000000000111110 2
b0000000000111110 3
#126
1+
b0000000000111111 1
#127
b0000000000111111 $
0+
b0000000000111111 2
b0000000000111111 3
#128
1+
b0000000001000000 1
#129
b0000000001000000 $
0+
b0000000001000000 2
b0000000001000000 3
#130
1+
b0000000001000001 1
#131
b0000000001000001 $
0+
b0000000001000001 2
b0000000001000001 3
#132
1+
b0000000001000010 1
#133
b0000000001000010 $
0+
b0000000001000010 2
b0000000001000010 3
#134
1+
b0000000001000011 1
#135
b0000000001000011 $
0+
b0000000001000011 2
b0000000001000011 3
#136
1+
b0000000001000100 1
#137
b0000000001000100 $
0+
b0000000001000100 2
b0000000001000100 3
#138
1+
b0000000001000101 1
#139
b0000000001000101 $
0+
b0000000001000101 2
b0000000001000101 3
#140
1+
b0000000001000110 1
#141
b0000000001000110 $
0+
b0000000001000110 2
b0000000001000110 3
#142
1+
b0000000001000111 1
#143
b0000000001000111 $
0+
b0000000001000111 2
b0000000001000111 3
#144
1+
b0000000001001000 1
#145
b0000000001001000 $
0+
b0000000001001000 2
b0000000001001000 3
#146
1+
b0000000001001001 1
#147
b0000000001001001 $
0+
b0000000001001001 2
b0000000001001001 3
#148
1+
b0000000001001010 1
#149
b0000000001001010 $
0+
b0000000001001010 2
b0000000001001010 3
#150
1+
b0000000001001011 1
#151
b0000000001001011 $
0+
b0000000001001011 2
b0000000001001011 3
#152
1+
b0000000001001100 1
#153
b0000000001001100 $
0+
b0000000001001100 2
b0000000001001100 3
#154
1+
b0000000001001101 1
#155
b0000000001001101 $
0+
b0000000001001101 2
b0000000001001101 3
#156
1+
b0000000001001110 1
#157
b0000000001001110 $
0+
b0000000001001110 2
b0000000001001110 3
#158
1+
b0000000001001111 1
#159
b0000000001001111 $
0+
b0000000001001111 2
b0000000001001111 3
#160
1+
b0000000001010000 1
#161
b0000000001010000 $
0+
b0000000001010000 2
b0000000001010000 3
#162
1+
b0000000001010001 1
#163
b0000000001010001 $
0+
b0000000001010001 2
b0000000001010001 3
#164
1+
b0000000001010010 1
#165
b0000000001010010 $
0+
b0000000001010010 2
b0000000001010010 3
#166
1+
b0000000001010011 1
#167
b0000000001010011 $
0+
b0000000001010011 2
b0000000001010011 3
#168
1+
b0000000001010100 1
#169
b0000000001010100 $
0+
b0000000001010100 2
b0000000001010100 3
#170
1+
b0000000001010101 1
#171
b0000000001010101 $
0+
b0000000001010101 2
b0000000001010101 3
#172
1+
b0000000001010110 1
#173
b0000000001010110 $
0+
b0000000001010110 2
b0000000001010110 3
#174
1+
b0000000001010111 1
#175
b0000000001010111 $
0+
b0000000001010111 2
b0000000001010111 3
#176
1+
b0000000001011000 1
#177
b0000000001011000 $
0+
b0000000001011000 2
b0000000001011000 3
#178
1+
b0000000001011001 1
#179
b0000000001011001 $
0+
b0000000001011001 2
b0000000001011001 3
#180
1+
b0000000001011010 1
#181
b0000000001011010 $
0+
b0000000001011010 2
b0000000001011010 3
#182
1+
b0000000001011011 1
#183
b0000000001011011 $
0+
b0000000001011011 2
b0000000001011011 3
#184
1+
b0000000001011100 1
#185
b0000000001011100 $
0+
b0000000001011100 2
b0000000001011100 3
#186
1+
b0000000001011101 1
#187
b0000000001011101 $
0+
b0000000001011101 2
b0000000001011101 3
#188
1+
b0000000001011110 1
#189
b0000000001011110 $
0+
b0000000001011110 2
b0000000001011110 3
#190
1+
b0000000001011111 1
#191
b0000000001011111 $
0+
b0000000001011111 2
b0000000001011111 3
#192
1+
b0000000001100000 1
#193
b0000000001100000 $
0+
b0000000001100000 2
b0000000001100000 3
#194
1+
b0000000001100001 1
#195
b0000000001100001 $
0+
b0000000001100001 2
b0000000001100001 3
#196
1+
b0000000001100010 1
#197
b0000000001100010 $
0+
b0000000001100010 2
b0000000001100010 3
#198
1+
b0000000001100011 1
#199
b0000000001100011 $
0+
b0000000001100011 2
b0000000001100011 3
#200
1+
b0000000001100100 1
#201
b0000000001100100 $
0+
b0000000001100100 2
b0000000001100100 3
#202
1+
b0000000001100101 1
#203
b0000000001100101 $
0+
b0000000001100101 2
b0000000001100101 3
#204
1+
b0000000001100110 1
#205
b0000000001100110 $
0+
b0000000001100110 2
b0000000001100110 3
#206
1+
b0000000001100111 1
#207
b0000000001100111 $
0+
b0000000001100111 2
b0000000001100111 3
#208
1+
b0000000001101000 1
#209
b0000000001101000 $
0+
b0000000001101000 2
b0000000001101000 3
#210
1+
b0000000001101001 1
#211
b0000000001101001 $
0+
b0000000001101001 2
b0000000001101001 3
#212
1+
b0000000001101010 1
#213
b0000000001101010 $
0+
b0000000001101010 2
b0000000001101010 3
#214
1+
b0000000001101011 1
#215
b0000000001101011 $
0+
b0000000001101011 2
b0000000001101011 3
#216
1+
b0000000001101100 1
#217
b0000000001101100 $
0+
b0000000001101100 2
b0000000001101100 3
#218
1+
b0000000001101101 1
#219
b0000000001101101 $
0+
b0000000001101101 2
b0000000001101101 3
#220
1+
b0000000001101110 1
#221
b0000000001101110 $
0+
b0000000001101110 2
b0000000001101110 3
#222
1+
b0000000001101111 1
#223
b0000000001101111 $
0+
b0000000001101111 2
b0000000001101111 3
#224
1+
b0000000001110000 1
#225
b0000000001110000 $
0+
b0000000001110000 2
b0000000001110000 3
#226
1+
b0000000001110001 1
#227
b0000000001110001 $
0+
b0000000001110001 2
b0000000001110001 3
#228
1+
b0000000001110010 1
#229
b0000000001110010 $
0+
b0000000001110010 2
b0000000001110010 3
#230
1+
b0000000001110011 1
#231
b0000000001110011 $
0+
b0000000001110011 2
b0000000001110011 3
#232
1+
b0000000001110100 1
#233
b0000000001110100 $
0+
b0000000001110100 2
b0000000001110100 3
#234
1+
b0000000001110101 1
#235
b0000000001110101 $
0+
b0000000001110101 2
b0000000001110101 3
#236
1+
b0000000001110110 1
#237
b0000000001110110 $
0+
b0000000001110110 2
b0000000001110110 3
#238
1+
b0000000001110111 1
#239
b0000000001110111 $
0+
b0000000001110111 2
b0000000001110111 3
#240
1+
b0000000001111000 1
#241
b0000000001111000 $
0+
b0000000001111000 2
b0000000001111000 3
#242
1+
b0000000001111001 1
#243
b0000000001111001 $
0+
b0000000001111001 2
b0000000001111001 3
#244
1+
b0000000001111010 1
#245
b0000000001111010 $
0+
b0000000001111010 2
b0000000001111010 3
#246
1+
b0000000001111011 1
#247
b0000000001111011 $
0+
b0000000001111011 2
b0000000001111011 3
#248
1+
b0000000001111100 1
#249
b0000000001111100 $
0+
b0000000001111100 2
b0000000001111100 3
#250
1+
b0000000001111101 1
#251
b0000000001111101 $
0+
b0000000001111101 2
b0000000001111101 3
#252
1+
b0000000001111110 1
#253
b0000000001111110 $
0+
b0000000001111110 2
b0000000001111110 3
#254
1+
b0000000001111111 1
#255
b0000000001111111 $
0+
b0000000001111111 2
b0000000001111111 3
#256
1+
b0000000010000000 1
#257
b0000000010000000 $
0+
b0000000010000000 2
b0000000010000000 3
#258
1+
b0000000010000001 1
#259
b0000000010000001 $
0+
b0000000010000001 2
b0000000010000001 3
#260
1+
b0000000010000010 1
#261
b0000000010000010 $
0+
b0000000010000010 2
b0000000010000010 3
#262
1+
b0000000010000011 1
#263
b0000000010000011 $
0+
b0000000010000011 2
b0000000010000011 3
#264
1+
b0000000010000100 1
#265
b0000000010000100 $
0+
b0000000010000100 2
b0000000010000100 3
#266
1+
b0000000010000101 1
#267
b0000000010000101 $
0+
b0000000010000101 2
b0000000010000101 3
#268
1+
b0000000010000110 1
#269
b0000000010000110 $
0+
b0000000010000110 2
b0000000010000110 3
#270
1+
b0000000010000111 1
#271
b0000000010000111 $
0+
b0000000010000111 2
b0000000010000111 3
#272
1+
b0000000010001000 1
#273
b0000000010001000 $
0+
b0000000010001000 2
b0000000010001000 3
#274
1+
b0000000010001001 1
#275
b0000000010001001 $
0+
b0000000010001001 2
b0000000010001001 3
#276
1+
b0000000010001010 1
#277
b0000000010001010 $
0+
b0000000010001010 2
b0000000010001010 3
#278
1+
b0000000010001011 1
#279
b0000000010001011 $
0+
b0000000010001011 2
b0000000010001011 3
#280
1+
b0000000010001100 1
#281
b0000000010001100 $
0+
b0000000010001100 2
b0000000010001100 3
#282
1+
b0000000010001101 1
#283
b0000000010001101 $
0+
b0000000010001101 2
b0000000010001101 3
#284
1+
b0000000010001110 1
#285
b0000000010001110 $
0+
b0000000010001110 2
b0000000010001110 3
#286
1+
b0000000010001111 1
#287
b0000000010001111 $
0+
b0000000010001111 2
b0000000010001111 3
#288
1+
b0000000010010000 1
#289
b0000000010010000 $
0+
b0000000010010000 2
b0000000010010000 3
#290
1+
b0000000010010001 1
#291
b0000000010010001 $
0+
b0000000010010001 2
b0000000010010001 3
#292
1+
b0000000010010010 1
#293
b0000000010010010 $
0+
b0000000010010010 2
b0000000010010010 3
#294
1+
b0000000010010011 1
#295
b0000000010010011 $
0+
b0000000010010011 2
b0000000010010011 3
#296
1+
b0000000010010100 1
#297
b0000000010010100 $
0+
b0000000010010100 2
b0000000010010100 3
#298
1+
b0000000010010101 1
#299
b0000000010010101 $
0+
b0000000010010101 2
b0000000010010101 3
#300
1+
b0000000010010110 1
#301
b0000000010010110 $
0+
b0000000010010110 2
b0000000010010110 3
#302
1+
b0000000010010111 1
#303
b0000000010010111 $
0+
b0000000010010111 2
b0000000010010111 3
#304
1+
b0000000010011000 1
#305
b0000000010011000 $
0+
b0000000010011000 2
b0000000010011000 3
#306
1+
b0000000010011001 1
#307
b0000000010011001 $
0+
b0000000010011001 2
b0000000010011001 3
#308
1+
b0000000010011010 1
#309
b0000000010011010 $
0+
b0000000010011010 2
b0000000010011010 3
#310
1+
b0000000010011011 1
#311
b0000000010011011 $
0+
b0000000010011011 2
b0000000010011011 3
#312
1+
b0000000010011100 1
#313
b0000000010011100 $
0+
b0000000010011100 2
b0000000010011100 3
#314
1+
b0000000010011101 1
#315
b0000000010011101 $
0+
b0000000010011101 2
b0000000010011101 3
#316
1+
b0000000010011110 1
#317
b0000000010011110 $
0+
b0000000010011110 2
b0000000010011110 3
#318
1+
b0000000010011111 1
#319
b0000000010011111 $
0+
b0000000010011111 2
b0000000010011111 3
#320
1+
b0000000010100000 1
#321
b0000000010100000 $
0+
b0000000010100000 2
b0000000010100000 3
#322
1+
b0000000010100001 1
#323
b0000000010100001 $
0+
b0000000010100001 2
b0000000010100001 3
#324
1+
b0000000010100010 1
#325
b0000000010100010 $
0+
b0000000010100010 2
b0000000010100010 3
#326
1+
b0000000010100011 1
#327
b0000000010100011 $
0+
b0000000010100011 2
b0000000010100011 3
#328
1+
b0000000010100100 1
#329
b0000000010100100 $
0+
b0000000010100100 2
b0000000010100100 3
#330
1+
b0000000010100101 1
#331
b0000000010100101 $
0+
b0000000010100101 2
b0000000010100101 3
#332
1+
b0000000010100110 1
#333
b0000000010100110 $
0+
b0000000010100110 2
b0000000010100110 3
#334
1+
b0000000010100111 1
#335
b0000000010100111 $
0+
b0000000010100111 2
b0000000010100111 3
#336
1+
b0000000010101000 1
#337
b0000000010101000 $
0+
b0000000010101000 2
b0000000010101000 3
#338
1+
b0000000010101001 1
#339
b0000000010101001 $
0+
b0000000010101001 2
b0000000010101001 3
#340
1+
b0000000010101010 1
#341
b0000000010101010 $
0+
b0000000010101010 2
b0000000010101010 3
#342
1+
b0000000010101011 1
#343
b0000000010101011 $
0+
b0000000010101011 2
b0000000010101011 3
#344
1+
b0000000010101100 1
#345
b0000000010101100 $
0+
b0000000010101100 2
b0000000010101100 3
#346
1+
b0000000010101101 1
#347
b0000000010101101 $
0+
b0000000010101101 2
b0000000010101101 3
#348
1+
b0000000010101110 1
#349
b0000000010101110 $
0+
b0000000010101110 2
b0000000010101110 3
#350
1+
b0000000010101111 1
#351
b0000000010101111 $
0+
b0000000010101111 2
b0000000010101111 3
#352
1+
b0000000010110000 1
#353
b0000000010110000 $
0+
b0000000010110000 2
b0000000010110000 3
#354
1+
b0000000010110001 1
#355
b0000000010110001 $
0+
b0000000010110001 2
b0000000010110001 3
#356
1+
b0000000010110010 1
#357
b0000000010110010 $
0+
b0000000010110010 2
b0000000010110010 3
#358
1+
b0000000010110011 1
#359
b0000000010110011 $
0+
b0000000010110011 2
b0000000010110011 3
#360
1+
b0000000010110100 1
#361
b0000000010110100 $
0+
b0000000010110100 2
b0000000010110100 3
#362
1+
b0000000010110101 1
#363
b0000000010110101 $
0+
b0000000010110101 2
b0000000010110101 3
#364
1+
b0000000010110110 1
#365
b0000000010110110 $
0+
b0000000010110110 2
b0000000010110110 3
#366
1+
b0000000010110111 1
#367
b0000000010110111 $
0+
b0000000010110111 2
b0000000010110111 3
#368
1+
b0000000010111000 1
#369
b0000000010111000 $
0+
b0000000010111000 2
b0000000010111000 3
#370
1+
b0000000010111001 1
#371
b0000000010111001 $
0+
b0000000010111001 2
b0000000010111001 3
#372
1+
b0000000010111010 1
#373
b0000000010111010 $
0+
b0000000010111010 2
b0000000010111010 3
#374
1+
b0000000010111011 1
#375
b0000000010111011 $
0+
b0000000010111011 2
b0000000010111011 3
#376
1+
b0000000010111100 1
#377
b0000000010111100 $
0+
b0000000010111100 2
b0000000010111100 3
#378
1+
b0000000010111101 1
#379
b0000000010111101 $
0+
b0000000010111101 2
b0000000010111101 3
#380
1+
b0000000010111110 1
#381
b0000000010111110 $
0+
b0000000010111110 2
b0000000010111110 3
#382
1+
b0000000010111111 1
#383
b0000000010111111 $
0+
b0000000010111111 2
b0000000010111111 3
#384
1+
b0000000011000000 1
#385
b0000000011000000 $
0+
b0000000011000000 2
b0000000011000000 3
#386
1+
b0000000011000001 1
#387
b0000000011000001 $
0+
b0000000011000001 2
b0000000011000001 3
#388
1+
b0000000011000010 1
#389
b0000000011000010 $
0+
b0000000011000010 2
b0000000011000010 3
#390
1+
b0000000011000011 1
#391
b0000000011000011 $
0+
b0000000011000011 2
b0000000011000011 3
#392
1+
b0000000011000100 1
#393
b0000000011000100 $
0+
b0000000011000100 2
b0000000011000100 3
#394
1+
b0000000011000101 1
#395
b0000000011000101 $
0+
b0000000011000101 2
b0000000011000101 3
#396
1+
b0000000011000110 1
#397
b0000000011000110 $
0+
b0000000011000110 2
b0000000011000110 3
#398
1+
b0000000011000111 1
#399
b0000000011000111 $
0+
b0000000011000111 2
b0000000011000111 3
#400
1+
b0000000011001000 1
#401
b0000000011001000 $
0+
b0000000011001000 2
b0000000011001000 3
#402
1+
b0000000011001001 1
#403
b0000000011001001 $
0+
b0000000011001001 2
b0000000011001001 3
#404
1+
b0000000011001010 1
#405
b0000000011001010 $
0+
b0000000011001010 2
b0000000011001010 3
#406
1+
b0000000011001011 1
#407
b0000000011001011 $
0+
b0000000011001011 2
b0000000011001011 3
#408
1+
b0000000011001100 1
#409
b0000000011001100 $
0+
b0000000011001100 2
b0000000011001100 3
#410
1+
b0000000011001101 1
#411
b0000000011001101 $
0+
b0000000011001101 2
b0000000011001101 3
#412
1+
b0000000011001110 1
#413
b0000000011001110 $
0+
b0000000011001110 2
b0000000011001110 3
#414
1+
b0000000011001111 1
#415
b0000000011001111 $
0+
b0000000011001111 2
b0000000011001111 3
#416
1+
b0000000011010000 1
#417
b0000000011010000 $
0+
b0000000011010000 2
b0000000011010000 3
#418
1+
b0000000011010001 1
#419
b0000000011010001 $
0+
b0000000011010001 2
b0000000011010001 3
#420
1+
b0000000011010010 1
#421
b0000000011010010 $
0+
b0000000011010010 2
b0000000011010010 3
#422
1+
b0000000011010011 1
#423
b0000000011010011 $
0+
b0000000011010011 2
b0000000011010011 3
#424
1+
b0000000011010100 1
#425
b0000000011010100 $
0+
b0000000011010100 2
b0000000011010100 3
#426
1+
b0000000011010101 1
#427
b0000000011010101 $
0+
b0000000011010101 2
b0000000011010101 3
#428
1+
b0000000011010110 1
#429
b0000000011010110 $
0+
b0000000011010110 2
b0000000011010110 3
#430
1+
b0000000011010111 1
#431
b0000000011010111 $
0+
b0000000011010111 2
b0000000011010111 3
#432
1+
b0000000011011000 1
#433
b0000000011011000 $
0+
b0000000011011000 2
b0000000011011000 3
#434
1+
b0000000011011001 1
#435
b0000000011011001 $
0+
b0000000011011001 2
b0000000011011001 3
#436
1+
b0000000011011010 1
#437
b0000000011011010 $
0+
b0000000011011010 2
b0000000011011010 3
#438
1+
b0000000011011011 1
#439
b0000000011011011 $
0+
b0000000011011011 2
b0000000011011011 3
#440
1+
b0000000011011100 1
#441
b0000000011011100 $
0+
b0000000011011100 2
b0000000011011100 3
#442
1+
b0000000011011101 1
#443
b0000000011011101 $
0+
b0000000011011101 2
b0000000011011101 3
#444
1+
b0000000011011110 1
#445
b0000000011011110 $
0+
b0000000011011110 2
b0000000011011110 3
#446
1+
b0000000011011111 1
#447
b0000000011011111 $
0+
b0000000011011111 2
b0000000011011111 3
#448
1+
b0000000011100000 1
#449
b0000000011100000 $
0+
b0000000011100000 2
b0000000011100000 3
#450
1+
b0000000011100001 1
#451
b0000000011100001 $
0+
b0000000011100001 2
b0000000011100001 3
#452
1+
b0000000011100010 1
#453
b0000000011100010 $
0+
b0000000011100010 2
b0000000011100010 3
#454
1+
b0000000011100011 1
#455
b0000000011100011 $
0+
b0000000011100011 2
b0000000011100011 3
#456
1+
b0000000011100100 1
#457
b0000000011100100 $
0+
b0000000011100100 2
b0000000011100100 3
#458
1+
b0000000011100101 1
#459
b0000000011100101 $
0+
b0000000011100101 2
b0000000011100101 3
#460
1+
b0000000011100110 1
#461
b0000000011100110 $
0+
b0000000011100110 2
b0000000011100110 3
#462
1+
b0000000011100111 1
#463
b0000000011100111 $
0+
b0000000011100111 2
b0000000011100111 3
#464
1+
b0000000011101000 1
#465
b0000000011101000 $
0+
b0000000011101000 2
b0000000011101000 3
#466
1+
b0000000011101001 1
#467
b0000000011101001 $
0+
b0000000011101001 2
b0000000011101001 3
#468
1+
b0000000011101010 1
#469
b0000000011101010 $
0+
b0000000011101010 2
b0000000011101010 3
#470
1+
b0000000011101011 1
#471
b0000000011101011 $
0+
b0000000011101011 2
b0000000011101011 3
#472
1+
b0000000011101100 1
#473
b0000000011101100 $
0+
b0000000011101100 2
b0000000011101100 3
#474
1+
b0000000011101101 1
#475
b0000000011101101 $
0+
b0000000011101101 2
b0000000011101101 3
#476
1+
b0000000011101110 1
#477
b0000000011101110 $
0+
b0000000011101110 2
b0000000011101110 3
#478
1+
b0000000011101111 1
#479
b0000000011101111 $
0+
b0000000011101111 2
b0000000011101111 3
#480
1+
b0000000011110000 1
#481
b0000000011110000 $
0+
b0000000011110000 2
b0000000011110000 3
#482
1+
b0000000011110001 1
#483
b0000000011110001 $
0+
b0000000011110001 2
b0000000011110001 3
#484
1+
b0000000011110010 1
#485
b0000000011110010 $
0+
b0000000011110010 2
b0000000011110010 3
#486
1+
b0000000011110011 1
#487
b0000000011110011 $
0+
b0000000011110011 2
b0000000011110011 3
#488
1+
b0000000011110100 1
#489
b0000000011110100 $
0+
b0000000011110100 2
b0000000011110100 3
#490
1+
b0000000011110101 1
#491
b0000000011110101 $
0+
b0000000011110101 2
b0000000011110101 3
#492
1+
b0000000011110110 1
#493
b0000000011110110 $
0+
b0000000011110110 2
b0000000011110110 3
#494
1+
b0000000011110111 1
#495
b0000000011110111 $
0+
b0000000011110111 2
b0000000011110111 3
#496
1+
b0000000011111000 1
#497
b0000000011111000 $
0+
b0000000011111000 2
b0000000011111000 3
#498
1+
b0000000011111001 1
#499
b0000000011111001 $
0+
b0000000011111001 2
b0000000011111001 3
#500
1+
b0000000011111010 1
#501
b0000000011111010 $
0+
b0000000011111010 2
b0000000011111010 3
#502
1+
b0000000011111011 1
#503
b0000000011111011 $
0+
b0000000011111011 2
b0000000011111011 3
#504
1+
b0000000011111100 1
#505
b0000000011111100 $
0+
b0000000011111100 2
b0000000011111100 3
#506
1+
b0000000011111101 1
#507
b0000000011111101 $
0+
b0000000011111101 2
b0000000011111101 3
#508
1+
b0000000011111110 1
