eep.vcd
$version Generated by VerilatedVcd $end
$timescale 1ps $end
 $scope module TOP $end
  $scope module eep $end
   $var wire 32 i REG_DEPTH [31:0] $end
   $var wire 32 j REG_WIDTH [31:0] $end
   $var wire 32 j INSTR_WIDTH [31:0] $end
   $var wire 1 \ clk $end
   $var wire 32 k cpen [31:0] $end
   $var wire 32 k dpen [31:0] $end
   $var wire 1 # flagn $end
   $var wire 1 $ flagz $end
   $var wire 1 ] flagc $end
   $var wire 1 % flagv $end
   $var wire 1 4 flagcin $end
   $var wire 1 5 wen $end
   $var wire 16 6 codemem_data [15:0] $end
   $var wire 16 7 codemem_addr [15:0] $end
   $var wire 16 8 immext [15:0] $end
   $var wire 16 & ra [15:0] $end
   $var wire 16 6 ins [15:0] $end
   $var wire 16 9 retadr [15:0] $end
   $var wire 16 & din [15:0] $end
   $var wire 16 ' dout [15:0] $end
   $var wire 16 ( addr [15:0] $end
   $scope module datapath $end
    $var wire 32 i REG_DEPTH [31:0] $end
    $var wire 32 j REG_WIDTH [31:0] $end
    $var wire 32 o REG_ADDR_WIDTH [31:0] $end
    $var wire 1 \ clk $end
    $var wire 16 9 pcin [15:0] $end
    $var wire 16 6 ins [15:0] $end
    $var wire 1 4 flagcin $end
    $var wire 1 n dpen $end
    $var wire 16 ' memdout [15:0] $end
    $var wire 1 # flagn $end
    $var wire 1 $ flagz $end
    $var wire 1 ] flagc $end
    $var wire 1 % flagv $end
    $var wire 16 8 immext [15:0] $end
    $var wire 16 & raout [15:0] $end
    $var wire 16 ( memaddr [15:0] $end
    $var wire 16 & memdin [15:0] $end
    $var wire 1 5 memwen $end
    $var wire 3 F a [2:0] $end
    $var wire 3 G b [2:0] $end
    $var wire 3 H c [2:0] $end
    $var wire 3 I aluopc [2:0] $end
    $var wire 4 J scnt [3:0] $end
    $var wire 2 K shiftopc [1:0] $end
    $var wire 1 L op2sel $end
    $var wire 1 M ad1selc $end
    $var wire 1 N dp_wen1 $end
    $var wire 1 O pcwrite $end
    $var wire 1 P ext $end
    $var wire 1 Q memldr $end
    $var wire 1 5 memstr $end
    $var wire 16 R imms8 [15:0] $end
    $var wire 16 S imms5 [15:0] $end
    $var wire 1 N wen1 $end
    $var wire 3 T ad1 [2:0] $end
    $var wire 16 & ra [15:0] $end
    $var wire 16 ) rb [15:0] $end
    $var wire 16 _ memdout_mux [15:0] $end
    $var wire 16 ` din1 [15:0] $end
    $scope module regfile $end
     $var wire 32 o ADDR_WIDTH [31:0] $end
     $var wire 32 j DATA_WIDTH [31:0] $end
     $var wire 1 \ clk $end
     $var wire 1 N wen1 $end
     $var wire 3 T ad1 [2:0] $end
     $var wire 3 F ad2 [2:0] $end
     $var wire 3 G ad3 [2:0] $end
     $var wire 16 ` din1 [15:0] $end
     $var wire 16 & dout2 [15:0] $end
     $var wire 16 ) dout3 [15:0] $end
     $var wire 16 a registers[0] [15:0] $end
     $var wire 16 b registers[1] [15:0] $end
     $var wire 16 c registers[2] [15:0] $end
     $var wire 16 d registers[3] [15:0] $end
     $var wire 16 e registers[4] [15:0] $end
     $var wire 16 f registers[5] [15:0] $end
     $var wire 16 g registers[6] [15:0] $end
     $var wire 16 h registers[7] [15:0] $end
    $upscope $end
    $var wire 16 * nz_data [15:0] $end
    $var wire 16 + alu_out [15:0] $end
    $scope module alu $end
     $var wire 32 j REG_WIDTH [31:0] $end
     $var wire 1 \ clk $end
     $var wire 16 & ra [15:0] $end
     $var wire 16 ) rb [15:0] $end
     $var wire 1 4 flagcin $end
     $var wire 3 I aluopc [2:0] $end
     $var wire 2 K shiftopc [1:0] $end
     $var wire 4 J scnt [3:0] $end
     $var wire 1 L op2sel $end
     $var wire 16 8 imm [15:0] $end
     $var wire 1 ] flagc $end
     $var wire 1 % flagv $end
     $var wire 16 + out [15:0] $end
     $var wire 16 , inb [15:0] $end
     $var wire 1 U invert $end
     $var wire 1 V addsubcin $end
     $var wire 16 - and_out [15:0] $end
     $var wire 1 . addsub_cout $end
     $var wire 16 / addsub_out [15:0] $end
     $var wire 1 0 shift_cout $end
     $var wire 16 1 shift_out [15:0] $end
     $scope module addsub $end
      $var wire 32 j REG_WIDTH [31:0] $end
      $var wire 16 , inb [15:0] $end
      $var wire 16 & ina [15:0] $end
      $var wire 1 U invert $end
      $var wire 1 V carryin $end
      $var wire 1 % flagv $end
      $var wire 1 . carryout $end
      $var wire 16 / out [15:0] $end
      $var wire 16 2 inb_with_invert [15:0] $end
      $var wire 17 3 sum [16:0] $end
     $upscope $end
     $scope module aludecode $end
      $var wire 1 4 flagcin $end
      $var wire 3 I aluopc [2:0] $end
      $var wire 1 U addsubcin $end
      $var wire 1 V invert $end
     $upscope $end
     $scope module shift $end
      $var wire 32 j REG_WIDTH [31:0] $end
      $var wire 16 ) in [15:0] $end
      $var wire 1 4 sftin $end
      $var wire 4 J scnt [3:0] $end
      $var wire 2 K shiftopc [1:0] $end
      $var wire 1 0 sftout $end
      $var wire 16 1 out [15:0] $end
     $upscope $end
    $upscope $end
    $scope module decode $end
     $var wire 32 j REG_WIDTH [31:0] $end
     $var wire 16 6 ins [15:0] $end
     $var wire 1 L op2sel $end
     $var wire 1 M ad1selc $end
     $var wire 1 N wen1 $end
     $var wire 1 O pcwrite $end
     $var wire 1 P ext $end
     $var wire 3 F a [2:0] $end
     $var wire 3 G b [2:0] $end
     $var wire 3 H c [2:0] $end
     $var wire 3 I aluopc [2:0] $end
     $var wire 4 J scnt [3:0] $end
     $var wire 2 K shiftopc [1:0] $end
     $var wire 16 R imms8 [15:0] $end
     $var wire 16 S imms5 [15:0] $end
     $var wire 1 Q memldr $end
     $var wire 1 5 memstr $end
     $var wire 1 W alu_ins $end
     $var wire 1 X shift_ins $end
     $var wire 1 Y cmp_ins $end
    $upscope $end
    $scope module extend $end
     $var wire 32 j REG_WIDTH [31:0] $end
     $var wire 1 \ clk $end
     $var wire 16 R data [15:0] $end
     $var wire 1 P ext $end
     $var wire 16 8 immext [15:0] $end
     $var wire 8 Z reg1 [7:0] $end
     $var wire 1 [ ff1 $end
    $upscope $end
    $scope module nzgen $end
     $var wire 32 j REG_WIDTH [31:0] $end
     $var wire 16 * data [15:0] $end
     $var wire 1 # flagn $end
     $var wire 1 $ flagz $end
    $upscope $end
   $upscope $end
   $scope module codemem $end
    $var wire 32 j ADDR_WIDTH [31:0] $end
    $var wire 32 j DATA_WIDTH [31:0] $end
    $var wire 8 l FILE [7:0] $end
    $var wire 32 m DEPTH [31:0] $end
    $var wire 16 7 addr [15:0] $end
    $var wire 16 6 dout [15:0] $end
   $upscope $end
   $scope module controlpath $end
    $var wire 32 j REG_WIDTH [31:0] $end
    $var wire 1 \ clk $end
    $var wire 1 n cpen $end
    $var wire 1 # nd $end
    $var wire 1 $ zd $end
    $var wire 1 ] cd $end
    $var wire 1 % vd $end
    $var wire 16 & ra [15:0] $end
    $var wire 16 6 memdata [15:0] $end
    $var wire 16 8 immext [15:0] $end
    $var wire 16 6 ins [15:0] $end
    $var wire 16 9 retadr [15:0] $end
    $var wire 16 7 memaddr [15:0] $end
    $var wire 1 4 flagc $end
    $var wire 16 7 pc [15:0] $end
    $var wire 16 ^ pcnext [15:0] $end
    $var wire 4 : jmpcond [3:0] $end
    $var wire 1 ; jmp $end
    $var wire 16 8 offset [15:0] $end
    $var wire 1 < ffn $end
    $var wire 1 = ffz $end
    $var wire 1 4 ffc $end
    $var wire 1 > ffv $end
    $var wire 1 ? cven $end
    $var wire 1 @ nzen $end
    $var wire 1 @ ffn_en $end
    $var wire 1 @ ffz_en $end
    $var wire 1 ? ffc_en $end
    $var wire 1 ? ffv_en $end
    $scope module controldecode $end
     $var wire 32 j REG_WIDTH [31:0] $end
     $var wire 16 8 immext [15:0] $end
     $var wire 16 6 ins [15:0] $end
     $var wire 1 @ nzen $end
     $var wire 1 ? cven $end
     $var wire 4 : jmpcond [3:0] $end
     $var wire 1 ; jmp $end
     $var wire 16 8 joffset [15:0] $end
    $upscope $end
    $scope module next $end
     $var wire 32 j REG_WIDTH [31:0] $end
     $var wire 1 < flagn $end
     $var wire 1 = flagz $end
     $var wire 1 4 flagc $end
     $var wire 1 > flagv $end
     $var wire 4 : jmpcond [3:0] $end
     $var wire 1 ; jmp $end
     $var wire 16 8 offset [15:0] $end
     $var wire 16 & ra [15:0] $end
     $var wire 16 7 pc [15:0] $end
     $var wire 16 ^ pcnext [15:0] $end
     $var wire 1 A cond_jmp $end
     $var wire 1 B cond_ret $end
     $var wire 16 C add [15:0] $end
     $scope module cond $end
      $var wire 1 < flagn $end
      $var wire 1 = flagz $end
      $var wire 1 4 flagc $end
      $var wire 1 > flagv $end
      $var wire 4 : jmpcond [3:0] $end
      $var wire 1 A jump $end
      $var wire 1 B ret $end
      $var wire 1 D out $end
      $var wire 1 E not_n_xor_v $end
     $upscope $end
    $upscope $end
   $upscope $end
   $scope module datamem $end
    $var wire 32 j ADDR_WIDTH [31:0] $end
    $var wire 32 j DATA_WIDTH [31:0] $end
    $var wire 8 l FILE [7:0] $end
    $var wire 32 m DEPTH [31:0] $end
    $var wire 1 5 wen $end
    $var wire 16 ( addr [15:0] $end
    $var wire 16 & din [15:0] $end
    $var wire 16 ' dout [15:0] $end
   $upscope $end
  $upscope $end
  $var wire 1 \ clk $end
 $upscope $end
$enddefinitions $end


#0
0#
1$
0%
b0000000000000000 &
b0000000000000000 '
b0000000000000000 (
b0000000000000000 )
b0000000000000000 *
b0000000000000000 +
b0000000000000000 ,
b0000000000000000 -
0.
b0000000000000000 /
00
b0000000000000000 1
b0000000000000000 2
b00000000000000000 3
04
05
b0000000000000000 6
b0000000000000000 7
b0000000000000000 8
b0000000000000001 9
b0000 :
0;
0<
0=
0>
0?
1@
0A
0B
b0000000000000001 C
0D
1E
b000 F
b000 G
b000 H
b000 I
b0000 J
b00 K
0L
1M
1N
0O
0P
0Q
b0000000000000000 R
b0000000000000000 S
b000 T
0U
0V
0W
0X
0Y
b00000000 Z
0[
0\
0]
b0000000000000001 ^
b0000000000000000 _
b0000000000000000 `
b0000000000000000 a
b0000000000000000 b
b0000000000000000 c
b0000000000000000 d
b0000000000000000 e
b0000000000000000 f
b0000000000000000 g
b0000000000000000 h
b00000000000000000000000000001000 i
b00000000000000000000000000010000 j
b00000000000000000000000000000001 k
b00000000 l
b00000000000000001111111111111111 m
1n
b00000000000000000000000000000011 o
#1
1A
1D
1\
#2
0\
#3
b0000000000000001 7
b0000000000000010 9
1=
b0000000000000010 C
1\
b0000000000000010 ^
#4
0\
#5
b0000000000000010 7
b0000000000000011 9
b0000000000000011 C
1\
b0000000000000011 ^
#6
0\
#7
b0000000000000011 7
b0000000000000100 9
b0000000000000100 C
1\
b0000000000000100 ^
#8
0\
#9
b0000000000000100 7
b0000000000000101 9
b0000000000000101 C
1\
b0000000000000101 ^
#10
0\
#11
b0000000000000101 7
b0000000000000110 9
b0000000000000110 C
1\
b0000000000000110 ^
#12
0\
#13
b0000000000000110 7
b0000000000000111 9
b0000000000000111 C
1\
b0000000000000111 ^
#14
0\
#15
b0000000000000111 7
b0000000000001000 9
b0000000000001000 C
1\
b0000000000001000 ^
#16
0\
#17
b0000000000001000 7
b0000000000001001 9
b0000000000001001 C
1\
b0000000000001001 ^
#18
0\
#19
b0000000000001001 7
b0000000000001010 9
b0000000000001010 C
1\
b0000000000001010 ^
#20
0\
#21
b0000000000001010 7
b0000000000001011 9
b0000000000001011 C
1\
b0000000000001011 ^
#22
0\
#23
b0000000000001011 7
b0000000000001100 9
b0000000000001100 C
1\
b0000000000001100 ^
#24
0\
#25
b0000000000001100 7
b0000000000001101 9
b0000000000001101 C
1\
b0000000000001101 ^
#26
0\
#27
b0000000000001101 7
b0000000000001110 9
b0000000000001110 C
1\
b0000000000001110 ^
#28
0\
#29
b0000000000001110 7
b0000000000001111 9
b0000000000001111 C
1\
b0000000000001111 ^
#30
0\
#31
b0000000000001111 7
b0000000000010000 9
b0000000000010000 C
1\
b0000000000010000 ^
#32
0\
#33
b0000000000010000 7
b0000000000010001 9
b0000000000010001 C
1\
b0000000000010001 ^
#34
0\
#35
b0000000000010001 7
b0000000000010010 9
b0000000000010010 C
1\
b0000000000010010 ^
#36
0\
#37
b0000000000010010 7
b0000000000010011 9
b0000000000010011 C
1\
b0000000000010011 ^
#38
0\
#39
b0000000000010011 7
b0000000000010100 9
b0000000000010100 C
1\
b0000000000010100 ^
#40
0\
#41
b0000000000010100 7
b0000000000010101 9
b0000000000010101 C
1\
b0000000000010101 ^
#42
0\
#43
b0000000000010101 7
b0000000000010110 9
b0000000000010110 C
1\
b0000000000010110 ^
#44
0\
#45
b0000000000010110 7
b0000000000010111 9
b0000000000010111 C
1\
b0000000000010111 ^
#46
0\
#47
b0000000000010111 7
b0000000000011000 9
b0000000000011000 C
1\
b0000000000011000 ^
#48
0\
#49
b0000000000011000 7
b0000000000011001 9
b0000000000011001 C
1\
b0000000000011001 ^
#50
0\
#51
b0000000000011001 7
b0000000000011010 9
b0000000000011010 C
1\
b0000000000011010 ^
#52
0\
#53
b0000000000011010 7
b0000000000011011 9
b0000000000011011 C
1\
b0000000000011011 ^
#54
0\
#55
b0000000000011011 7
b0000000000011100 9
b0000000000011100 C
1\
b0000000000011100 ^
#56
0\
#57
b0000000000011100 7
b0000000000011101 9
b0000000000011101 C
1\
b0000000000011101 ^
#58
0\
#59
b0000000000011101 7
b0000000000011110 9
b0000000000011110 C
1\
b0000000000011110 ^
#60
0\
#61
b0000000000011110 7
b0000000000011111 9
b0000000000011111 C
1\
b0000000000011111 ^
#62
0\
#63
b0000000000011111 7
b0000000000100000 9
b0000000000100000 C
1\
b0000000000100000 ^
#64
0\
#65
b0000000000100000 7
b0000000000100001 9
b0000000000100001 C
1\
b0000000000100001 ^
#66
0\
#67
b0000000000100001 7
b0000000000100010 9
b0000000000100010 C
1\
b0000000000100010 ^
#68
0\
#69
b0000000000100010 7
b0000000000100011 9
b0000000000100011 C
1\
b0000000000100011 ^
#70
0\
#71
b0000000000100011 7
b0000000000100100 9
b0000000000100100 C
1\
b0000000000100100 ^
#72
0\
#73
b0000000000100100 7
b0000000000100101 9
b0000000000100101 C
1\
b0000000000100101 ^
#74
0\
#75
b0000000000100101 7
b0000000000100110 9
b0000000000100110 C
1\
b0000000000100110 ^
#76
0\
#77
b0000000000100110 7
b0000000000100111 9
b0000000000100111 C
1\
b0000000000100111 ^
#78
0\
#79
b0000000000100111 7
b0000000000101000 9
b0000000000101000 C
1\
b0000000000101000 ^
#80
0\
#81
b0000000000101000 7
b0000000000101001 9
b0000000000101001 C
1\
b0000000000101001 ^
#82
0\
#83
b0000000000101001 7
b0000000000101010 9
b0000000000101010 C
1\
b0000000000101010 ^
#84
0\
#85
b0000000000101010 7
b0000000000101011 9
b0000000000101011 C
1\
b0000000000101011 ^
#86
0\
#87
b0000000000101011 7
b0000000000101100 9
b0000000000101100 C
1\
b0000000000101100 ^
#88
0\
#89
b0000000000101100 7
b0000000000101101 9
b0000000000101101 C
1\
b0000000000101101 ^
#90
0\
#91
b0000000000101101 7
b0000000000101110 9
b0000000000101110 C
1\
b0000000000101110 ^
#92
0\
#93
b0000000000101110 7
b0000000000101111 9
b0000000000101111 C
1\
b0000000000101111 ^
#94
0\
#95
b0000000000101111 7
b0000000000110000 9
b0000000000110000 C
1\
b0000000000110000 ^
#96
0\
#97
b0000000000110000 7
b0000000000110001 9
b0000000000110001 C
1\
b0000000000110001 ^
#98
0\
#99
b0000000000110001 7
b0000000000110010 9
b0000000000110010 C
1\
b0000000000110010 ^
#100
0\
#101
b0000000000110010 7
b0000000000110011 9
b0000000000110011 C
1\
b0000000000110011 ^
#102
0\
#103
b0000000000110011 7
b0000000000110100 9
b0000000000110100 C
1\
b0000000000110100 ^
#104
0\
#105
b0000000000110100 7
b0000000000110101 9
b0000000000110101 C
1\
b0000000000110101 ^
#106
0\
#107
b0000000000110101 7
b0000000000110110 9
b0000000000110110 C
1\
b0000000000110110 ^
#108
0\
#109
b0000000000110110 7
b0000000000110111 9
b0000000000110111 C
1\
b0000000000110111 ^
#110
0\
#111
b0000000000110111 7
b0000000000111000 9
b0000000000111000 C
1\
b0000000000111000 ^
#112
0\
#113
b0000000000111000 7
b0000000000111001 9
b0000000000111001 C
1\
b0000000000111001 ^
#114
0\
#115
b0000000000111001 7
b0000000000111010 9
b0000000000111010 C
1\
b0000000000111010 ^
#116
0\
#117
b0000000000111010 7
b0000000000111011 9
b0000000000111011 C
1\
b0000000000111011 ^
#118
0\
#119
b0000000000111011 7
b0000000000111100 9
b0000000000111100 C
1\
b0000000000111100 ^
#120
0\
#121
b0000000000111100 7
b0000000000111101 9
b0000000000111101 C
1\
b0000000000111101 ^
#122
0\
#123
b0000000000111101 7
b0000000000111110 9
b0000000000111110 C
1\
b0000000000111110 ^
#124
0\
#125
b0000000000111110 7
b0000000000111111 9
b0000000000111111 C
1\
b0000000000111111 ^
#126
0\
#127
b0000000000111111 7
b0000000001000000 9
b0000000001000000 C
1\
b0000000001000000 ^
#128
0\
#129
b0000000001000000 7
b0000000001000001 9
b0000000001000001 C
1\
b0000000001000001 ^
#130
0\
#131
b0000000001000001 7
b0000000001000010 9
b0000000001000010 C
1\
b0000000001000010 ^
#132
0\
#133
b0000000001000010 7
b0000000001000011 9
b0000000001000011 C
1\
b0000000001000011 ^
#134
0\
#135
b0000000001000011 7
b0000000001000100 9
b0000000001000100 C
1\
b0000000001000100 ^
#136
0\
#137
b0000000001000100 7
b0000000001000101 9
b0000000001000101 C
1\
b0000000001000101 ^
#138
0\
#139
b0000000001000101 7
b0000000001000110 9
b0000000001000110 C
1\
b0000000001000110 ^
#140
0\
#141
b0000000001000110 7
b0000000001000111 9
b0000000001000111 C
1\
b0000000001000111 ^
#142
0\
#143
b0000000001000111 7
b0000000001001000 9
b0000000001001000 C
1\
b0000000001001000 ^
#144
0\
#145
b0000000001001000 7
b0000000001001001 9
b0000000001001001 C
1\
b0000000001001001 ^
#146
0\
#147
b0000000001001001 7
b0000000001001010 9
b0000000001001010 C
1\
b0000000001001010 ^
#148
0\
#149
b0000000001001010 7
b0000000001001011 9
b0000000001001011 C
1\
b0000000001001011 ^
#150
0\
#151
b0000000001001011 7
b0000000001001100 9
b0000000001001100 C
1\
b0000000001001100 ^
#152
0\
#153
b0000000001001100 7
b0000000001001101 9
b0000000001001101 C
1\
b0000000001001101 ^
#154
0\
#155
b0000000001001101 7
b0000000001001110 9
b0000000001001110 C
1\
b0000000001001110 ^
#156
0\
#157
b0000000001001110 7
b0000000001001111 9
b0000000001001111 C
1\
b0000000001001111 ^
#158
0\
#159
b0000000001001111 7
b0000000001010000 9
b0000000001010000 C
1\
b0000000001010000 ^
#160
0\
#161
b0000000001010000 7
b0000000001010001 9
b0000000001010001 C
1\
b0000000001010001 ^
#162
0\
#163
b0000000001010001 7
b0000000001010010 9
b0000000001010010 C
1\
b0000000001010010 ^
#164
0\
#165
b0000000001010010 7
b0000000001010011 9
b0000000001010011 C
1\
b0000000001010011 ^
#166
0\
#167
b0000000001010011 7
b0000000001010100 9
b0000000001010100 C
1\
b0000000001010100 ^
#168
0\
#169
b0000000001010100 7
b0000000001010101 9
b0000000001010101 C
1\
b0000000001010101 ^
#170
0\
#171
b0000000001010101 7
b0000000001010110 9
b0000000001010110 C
1\
b0000000001010110 ^
#172
0\
#173
b0000000001010110 7
b0000000001010111 9
b0000000001010111 C
1\
b0000000001010111 ^
#174
0\
#175
b0000000001010111 7
b0000000001011000 9
b0000000001011000 C
1\
b0000000001011000 ^
#176
0\
#177
b0000000001011000 7
b0000000001011001 9
b0000000001011001 C
1\
b0000000001011001 ^
#178
0\
#179
b0000000001011001 7
b0000000001011010 9
b0000000001011010 C
1\
b0000000001011010 ^
#180
0\
#181
b0000000001011010 7
b0000000001011011 9
b0000000001011011 C
1\
b0000000001011011 ^
#182
0\
#183
b0000000001011011 7
b0000000001011100 9
b0000000001011100 C
1\
b0000000001011100 ^
#184
0\
#185
b0000000001011100 7
b0000000001011101 9
b0000000001011101 C
1\
b0000000001011101 ^
#186
0\
#187
b0000000001011101 7
b0000000001011110 9
b0000000001011110 C
1\
b0000000001011110 ^
#188
0\
#189
b0000000001011110 7
b0000000001011111 9
b0000000001011111 C
1\
b0000000001011111 ^
#190
0\
#191
b0000000001011111 7
b0000000001100000 9
b0000000001100000 C
1\
b0000000001100000 ^
#192
0\
#193
b0000000001100000 7
b0000000001100001 9
b0000000001100001 C
1\
b0000000001100001 ^
#194
0\
#195
b0000000001100001 7
b0000000001100010 9
b0000000001100010 C
1\
b0000000001100010 ^
#196
0\
#197
b0000000001100010 7
b0000000001100011 9
b0000000001100011 C
1\
b0000000001100011 ^
#198
0\
#199
b0000000001100011 7
b0000000001100100 9
b0000000001100100 C
1\
b0000000001100100 ^
#200
0\
#201
b0000000001100100 7
b0000000001100101 9
b0000000001100101 C
1\
b0000000001100101 ^
#202
0\
#203
b0000000001100101 7
b0000000001100110 9
b0000000001100110 C
1\
b0000000001100110 ^
#204
0\
#205
b0000000001100110 7
b0000000001100111 9
b0000000001100111 C
1\
b0000000001100111 ^
#206
0\
#207
b0000000001100111 7
b0000000001101000 9
b0000000001101000 C
1\
b0000000001101000 ^
#208
0\
#209
b0000000001101000 7
b0000000001101001 9
b0000000001101001 C
1\
b0000000001101001 ^
#210
0\
#211
b0000000001101001 7
b0000000001101010 9
b0000000001101010 C
1\
b0000000001101010 ^
#212
0\
#213
b0000000001101010 7
b0000000001101011 9
b0000000001101011 C
1\
b0000000001101011 ^
#214
0\
#215
b0000000001101011 7
b0000000001101100 9
b0000000001101100 C
1\
b0000000001101100 ^
#216
0\
#217
b0000000001101100 7
b0000000001101101 9
b0000000001101101 C
1\
b0000000001101101 ^
#218
0\
#219
b0000000001101101 7
b0000000001101110 9
b0000000001101110 C
1\
b0000000001101110 ^
#220
0\
#221
b0000000001101110 7
b0000000001101111 9
b0000000001101111 C
1\
b0000000001101111 ^
#222
0\
#223
b0000000001101111 7
b0000000001110000 9
b0000000001110000 C
1\
b0000000001110000 ^
#224
0\
#225
b0000000001110000 7
b0000000001110001 9
b0000000001110001 C
1\
b0000000001110001 ^
#226
0\
#227
b0000000001110001 7
b0000000001110010 9
b0000000001110010 C
1\
b0000000001110010 ^
#228
0\
#229
b0000000001110010 7
b0000000001110011 9
b0000000001110011 C
1\
b0000000001110011 ^
#230
0\
#231
b0000000001110011 7
b0000000001110100 9
b0000000001110100 C
1\
b0000000001110100 ^
#232
0\
#233
b0000000001110100 7
b0000000001110101 9
b0000000001110101 C
1\
b0000000001110101 ^
#234
0\
#235
b0000000001110101 7
b0000000001110110 9
b0000000001110110 C
1\
b0000000001110110 ^
#236
0\
#237
b0000000001110110 7
b0000000001110111 9
b0000000001110111 C
1\
b0000000001110111 ^
#238
0\
#239
b0000000001110111 7
b0000000001111000 9
b0000000001111000 C
1\
b0000000001111000 ^
#240
0\
#241
b0000000001111000 7
b0000000001111001 9
b0000000001111001 C
1\
b0000000001111001 ^
#242
0\
#243
b0000000001111001 7
b0000000001111010 9
b0000000001111010 C
1\
b0000000001111010 ^
#244
0\
#245
b0000000001111010 7
b0000000001111011 9
b0000000001111011 C
1\
b0000000001111011 ^
#246
0\
#247
b0000000001111011 7
b0000000001111100 9
b0000000001111100 C
1\
b0000000001111100 ^
#248
0\
#249
b0000000001111100 7
b0000000001111101 9
b0000000001111101 C
1\
b0000000001111101 ^
#250
0\
#251
b0000000001111101 7
b0000000001111110 9
b0000000001111110 C
1\
b0000000001111110 ^
#252
0\
#253
b0000000001111110 7
b0000000001111111 9
b0000000001111111 C
1\
b0000000001111111 ^
#254
0\
#255
b0000000001111111 7
b0000000010000000 9
b0000000010000000 C
1\
b0000000010000000 ^
#256
0\
#257
b0000000010000000 7
b0000000010000001 9
b0000000010000001 C
1\
b0000000010000001 ^
#258
0\
#259
b0000000010000001 7
b0000000010000010 9
b0000000010000010 C
1\
b0000000010000010 ^
#260
0\
#261
b0000000010000010 7
b0000000010000011 9
b0000000010000011 C
1\
b0000000010000011 ^
#262
0\
#263
b0000000010000011 7
b0000000010000100 9
b0000000010000100 C
1\
b0000000010000100 ^
#264
0\
#265
b0000000010000100 7
b0000000010000101 9
b0000000010000101 C
1\
b0000000010000101 ^
#266
0\
#267
b0000000010000101 7
b0000000010000110 9
b0000000010000110 C
1\
b0000000010000110 ^
#268
0\
#269
b0000000010000110 7
b0000000010000111 9
b0000000010000111 C
1\
b0000000010000111 ^
#270
0\
#271
b0000000010000111 7
b0000000010001000 9
b0000000010001000 C
1\
b0000000010001000 ^
#272
0\
#273
b0000000010001000 7
b0000000010001001 9
b0000000010001001 C
1\
b0000000010001001 ^
#274
0\
#275
b0000000010001001 7
b0000000010001010 9
b0000000010001010 C
1\
b0000000010001010 ^
#276
0\
#277
b0000000010001010 7
b0000000010001011 9
b0000000010001011 C
1\
b0000000010001011 ^
#278
0\
#279
b0000000010001011 7
b0000000010001100 9
b0000000010001100 C
1\
b0000000010001100 ^
#280
0\
#281
b0000000010001100 7
b0000000010001101 9
b0000000010001101 C
1\
b0000000010001101 ^
#282
0\
#283
b0000000010001101 7
b0000000010001110 9
b0000000010001110 C
1\
b0000000010001110 ^
#284
0\
#285
b0000000010001110 7
b0000000010001111 9
b0000000010001111 C
1\
b0000000010001111 ^
#286
0\
#287
b0000000010001111 7
b0000000010010000 9
b0000000010010000 C
1\
b0000000010010000 ^
#288
0\
#289
b0000000010010000 7
b0000000010010001 9
b0000000010010001 C
1\
b0000000010010001 ^
#290
0\
#291
b0000000010010001 7
b0000000010010010 9
b0000000010010010 C
1\
b0000000010010010 ^
#292
0\
#293
b0000000010010010 7
b0000000010010011 9
b0000000010010011 C
1\
b0000000010010011 ^
#294
0\
#295
b0000000010010011 7
b0000000010010100 9
b0000000010010100 C
1\
b0000000010010100 ^
#296
0\
#297
b0000000010010100 7
b0000000010010101 9
b0000000010010101 C
1\
b0000000010010101 ^
#298
0\
#299
b0000000010010101 7
b0000000010010110 9
b0000000010010110 C
1\
b0000000010010110 ^
#300
0\
#301
b0000000010010110 7
b0000000010010111 9
b0000000010010111 C
1\
b0000000010010111 ^
#302
0\
#303
b0000000010010111 7
b0000000010011000 9
b0000000010011000 C
1\
b0000000010011000 ^
#304
0\
#305
b0000000010011000 7
b0000000010011001 9
b0000000010011001 C
1\
b0000000010011001 ^
#306
0\
#307
b0000000010011001 7
b0000000010011010 9
b0000000010011010 C
1\
b0000000010011010 ^
#308
0\
#309
b0000000010011010 7
b0000000010011011 9
b0000000010011011 C
1\
b0000000010011011 ^
#310
0\
#311
b0000000010011011 7
b0000000010011100 9
b0000000010011100 C
1\
b0000000010011100 ^
#312
0\
#313
b0000000010011100 7
b0000000010011101 9
b0000000010011101 C
1\
b0000000010011101 ^
#314
0\
#315
b0000000010011101 7
b0000000010011110 9
b0000000010011110 C
1\
b0000000010011110 ^
#316
0\
#317
b0000000010011110 7
b0000000010011111 9
b0000000010011111 C
1\
b0000000010011111 ^
#318
0\
#319
b0000000010011111 7
b0000000010100000 9
b0000000010100000 C
1\
b0000000010100000 ^
#320
0\
#321
b0000000010100000 7
b0000000010100001 9
b0000000010100001 C
1\
b0000000010100001 ^
#322
0\
#323
b0000000010100001 7
b0000000010100010 9
b0000000010100010 C
1\
b0000000010100010 ^
#324
0\
#325
b0000000010100010 7
b0000000010100011 9
b0000000010100011 C
1\
b0000000010100011 ^
#326
0\
#327
b0000000010100011 7
b0000000010100100 9
b0000000010100100 C
1\
b0000000010100100 ^
#328
0\
#329
b0000000010100100 7
b0000000010100101 9
b0000000010100101 C
1\
b0000000010100101 ^
#330
0\
#331
b0000000010100101 7
b0000000010100110 9
b0000000010100110 C
1\
b0000000010100110 ^
#332
0\
#333
b0000000010100110 7
b0000000010100111 9
b0000000010100111 C
1\
b0000000010100111 ^
#334
0\
#335
b0000000010100111 7
b0000000010101000 9
b0000000010101000 C
1\
b0000000010101000 ^
#336
0\
#337
b0000000010101000 7
b0000000010101001 9
b0000000010101001 C
1\
b0000000010101001 ^
#338
0\
#339
b0000000010101001 7
b0000000010101010 9
b0000000010101010 C
1\
b0000000010101010 ^
#340
0\
#341
b0000000010101010 7
b0000000010101011 9
b0000000010101011 C
1\
b0000000010101011 ^
#342
0\
#343
b0000000010101011 7
b0000000010101100 9
b0000000010101100 C
1\
b0000000010101100 ^
#344
0\
#345
b0000000010101100 7
b0000000010101101 9
b0000000010101101 C
1\
b0000000010101101 ^
#346
0\
#347
b0000000010101101 7
b0000000010101110 9
b0000000010101110 C
1\
b0000000010101110 ^
#348
0\
#349
b0000000010101110 7
b0000000010101111 9
b0000000010101111 C
1\
b0000000010101111 ^
#350
0\
#351
b0000000010101111 7
b0000000010110000 9
b0000000010110000 C
1\
b0000000010110000 ^
#352
0\
#353
b0000000010110000 7
b0000000010110001 9
b0000000010110001 C
1\
b0000000010110001 ^
#354
0\
#355
b0000000010110001 7
b0000000010110010 9
b0000000010110010 C
1\
b0000000010110010 ^
#356
0\
#357
b0000000010110010 7
b0000000010110011 9
b0000000010110011 C
1\
b0000000010110011 ^
#358
0\
#359
b0000000010110011 7
b0000000010110100 9
b0000000010110100 C
1\
b0000000010110100 ^
#360
0\
#361
b0000000010110100 7
b0000000010110101 9
b0000000010110101 C
1\
b0000000010110101 ^
#362
0\
#363
b0000000010110101 7
b0000000010110110 9
b0000000010110110 C
1\
b0000000010110110 ^
#364
0\
#365
b0000000010110110 7
b0000000010110111 9
b0000000010110111 C
1\
b0000000010110111 ^
#366
0\
#367
b0000000010110111 7
b0000000010111000 9
b0000000010111000 C
1\
b0000000010111000 ^
#368
0\
#369
b0000000010111000 7
b0000000010111001 9
b0000000010111001 C
1\
b0000000010111001 ^
